[  
    {"id":"1", "number":"380.1", "latitude":"-15.808522" , "longitude":"-47.885862", "date":"28/0/2020"},
    {"id":"2", "number":"050", "latitude":"-15.808522" , "longitude":"-47.885862", "date":"25/01/2020"}, 
    {"id":"3", "number":"110", "latitude":"-15.808522" , "longitude":"-47.885862", "date":"14/01/2020"}, 
    {"id":"4", "number":"802.2", "latitude":"-15.808522" , "longitude":"-47.885862", "date":"01/01/2020"}, 
    {"id":"5", "number":"373.3", "latitude":"-15.808522" , "longitude":"-47.885862", "date":"28/12/2019"}
]

